…
chord_library$phrase_chord_id <- 1:nrow(chord_library)
chord_library$parsed_chords <- parsed_chords

chord_library %>% 
  unnest(parsed_chords)

}
```

``` r
chord_library_parsed <- chord_library %>% chord_library_parse_chords() 

chord_library_parsed
#> # A tibble: 33 × 6
#>    chord_name fingering_str            phrase_chord_id finger  fret string
#>    <chr>      <chr>                              <int>  <dbl> <int>  <int>
#>  1 CM         "pppp\n----\n----\n---3"               1      3     3      4
#>  2 GM         "pppp\n----\n-1-2\n--3-"               2      1     2      2
#>  3 GM         "pppp\n----\n-1-2\n--3-"               2      2     2      4
#>  4 GM         "pppp\n----\n-1-2\n--3-"               2      3     3      3
#>  5 Dm         "pppp\n--1-\n23--\n----"               3      1     1      3
#>  6 Dm         "pppp\n--1-\n23--\n----"               3      2     2      1
#>  7 Dm         "pppp\n--1-\n23--\n----"               3      3     2      2
#>  8 E7M        "pppp\n1---\n-2-3\n----"               4      1     1      1
#>  9 E7M        "pppp\n1---\n-2-3\n----"               4      2     2      2
#> 10 E7M        "pppp\n1---\n-2-3\n----"               4      3     2      4
#> # ℹ 23 more rows
```
…
